Seasonal Analysis of Health Data • season
…
# augment - add model predictions back on to data
augment(casecross_cvd)
#> # A tibble: 8,815 × 15
#>    .rownames `Surv(timex, case)` o3mean  tmpd   Mon   Tue   Wed   Thu   Fri
#>    <chr>                  <Surv>  <dbl> <dbl> <dbl> <dbl> <dbl> <dbl> <dbl>
#>  1 3                           1  -16.0  54.5     0     0     0     1     0
#>  2 5                           1  -11.7  58.5     0     0     0     0     1
#>  3 9                           1  -10.3  55.2     0     0     0     0     0
#>  4 12                          1  -18.6  54.8     0     0     0     0     0
#>  5 15                          1  -17.5  54.5     1     0     0     0     0
#>  6 18                          1  -22.8  49.8     0     1     0     0     0
#>  7 21                          1  -19.1  53.5     0     0     1     0     0
#>  8 24                          1  -18.5  52.5     0     0     0     1     0
#>  9 27                          1  -17.3  54       0     0     0     0     1
#> 10 30                          1  -14.2  56       0     0     0     0     0
#> # ℹ 8,805 more rows
#> # ℹ 6 more variables: Sat <dbl>, `strata(time)` <fct>, `(weights)` <int>,
#> #   .fitted <dbl>, .se.fit <dbl>, .resid <dbl>
…
invyrfraction_num(year_frac, type = "monthly")
#> [1]  1.00  7.00 12.88
invyrfraction_chr(year_frac, type = "monthly")
#> [1] "Month = 1"    "Month = 7"    "Month = 12.9"

Estimate a periodogram using the fast Fourier transform (fft).

p <- peri(CVD$cvd)
p
#> # A tibble: 85 × 5
#>        peri freq_radians freq_cycles      amp phase
#>       <dbl>        <dbl>       <dbl>    <dbl> <dbl>
#>  1 6.30e-25       0             NA   8.66e-14 0    
#>  2 3.10e+ 5       0.0374       168   6.07e+ 1 0.357
#>  3 9.27e+ 4       0.0748        84   3.32e+ 1 0.641
#>  4 2.83e+ 4       0.112         56   1.83e+ 1 2.12 
#>  5 7.04e+ 3       0.150         42   9.16e+ 0 2.96 
#>  6 3.85e+ 4       0.187         33.6 2.14e+ 1 3.23 
#>  7 4.46e+ 2       0.224         28   2.30e+ 0 1.65 
#>  8 1.02e+ 5       0.262         24   3.48e+ 1 2.70 
#>  9 1.90e+ 4       0.299         21   1.50e+ 1 0.846
#> 10 1.18e+ 4       0.337         18.7 1.18e+ 1 2.45 
#> # ℹ 75 more rows
…
