# sinusoid plots without error for a range of inputs

    Code
      sn_1
    Output
      # A tibble: 2,001 x 2
            time sinusoid
           <dbl>    <dbl>
       1 0          0.540
       2 0.00314    0.543
       3 0.00628    0.546
       4 0.00942    0.548
       5 0.0126     0.551
       6 0.0157     0.553
       7 0.0188     0.556
       8 0.0220     0.559
       9 0.0251     0.561
      10 0.0283     0.564
      # i 1,991 more rows

---

    Code
      sn_2
    Output
      # A tibble: 2,001 x 2
            time sinusoid
           <dbl>    <dbl>
       1 0           2.5 
       2 0.00314     2.50
       3 0.00628     2.50
       4 0.00942     2.50
       5 0.0126      2.50
       6 0.0157      2.50
       7 0.0188      2.50
       8 0.0220      2.50
       9 0.0251      2.50
      10 0.0283      2.50
      # i 1,991 more rows

---

    Code
      sn_3
    Output
      # A tibble: 2,001 x 2
            time sinusoid
           <dbl>    <dbl>
       1 0         -1    
       2 0.00314   -1.000
       3 0.00628   -1.000
       4 0.00942   -1.000
       5 0.0126    -1.000
       6 0.0157    -1.000
       7 0.0188    -1.000
       8 0.0220    -1.000
       9 0.0251    -1.000
      10 0.0283    -1.000
      # i 1,991 more rows
