…
## Author

Adrian Barnett <a.barnett@qut.edu.au>

## Examples

``` r
s_n <- sinusoid(
  amplitude = 1,
  frequency = 1,
  phase = 1
  )
s_n
#> # A tibble: 2,001 × 2
#>       time sinusoid
#>      <dbl>    <dbl>
#>  1 0          0.540
#>  2 0.00314    0.543
#>  3 0.00628    0.546
#>  4 0.00942    0.548
#>  5 0.0126     0.551
#>  6 0.0157     0.553
#>  7 0.0188     0.556
#>  8 0.0220     0.559
#>  9 0.0251     0.561
#> 10 0.0283     0.564
#> # ℹ 1,991 more rows
…
